%YAML 1.1
%TAG !u! tag:unity3d.com,2011:
--- !u!114 &11400000
MonoBehaviour:
  m_ObjectHideFlags: 0
  m_CorrespondingSourceObject: {fileID: 0}
  m_PrefabInstance: {fileID: 0}
  m_PrefabAsset: {fileID: 0}
  m_GameObject: {fileID: 0}
  m_Enabled: 1
  m_EditorHideFlags: 0
  m_Script: {fileID: 11500000, guid: 7875e9ee11f68a849bdb3e16435edd5e, type: 3}
  m_Name: Rupee-Green
  m_EditorClassIdentifier: 
  _material: {fileID: 2100000, guid: 52b83a8476b9ce74592d6f8c4cb128a4, type: 2}
  _value: 1
